…
```sql
SELECT * FROM './data/raw/*.parquet';
```

```
┌──────────────────────┬──────────────────────┬──────────┬─────────────────┬───────────────────────────────────────────┐
│       dataset        │     request_time     │ response │ response_reason │                 croissant                 │
│       varchar        │       varchar        │  int64   │     varchar     │                  varchar                  │
├──────────────────────┼──────────────────────┼──────────┼─────────────────┼───────────────────────────────────────────┤
│ FreedomIntelligenc…  │ 2025-03-17 04:04:5…  │      200 │ OK              │ {"@context":{"@language":"en","@vocab":…  │
│ facebook/natural_r…  │ 2025-03-17 04:04:5…  │      200 │ OK              │ {"@context":{"@language":"en","@vocab":…  │
│ open-r1/codeforces…  │ 2025-03-17 04:04:5…  │      200 │ OK              │ {"@context":{"@language":"en","@vocab":…  │
│ Congliu/Chinese-De…  │ 2025-03-17 04:04:5…  │      200 │ OK              │ {"@context":{"@language":"en","@vocab":…  │
│ SmallDoge/SmallTho…  │ 2025-03-17 04:04:5…  │      200 │ OK              │ {"@context":{"@language":"en","@vocab":…  │
│ open-r1/OpenR1-Mat…  │ 2025-03-17 04:04:5…  │      200 │ OK              │ {"@context":{"@language":"en","@vocab":…  │
│ gaia-benchmark/GAIA  │ 2025-03-17 04:04:5…  │      401 │ Unauthorized    │ {"error":"Access to dataset gaia-benchm…  │
│ CharlieDreemur/Ope…  │ 2025-03-17 04:04:5…  │      200 │ OK              │ {"@context":{"@language":"en","@vocab":…  │
│ fka/awesome-chatgp…  │ 2025-03-17 04:04:5…  │      200 │ OK              │ {"@context":{"@language":"en","@vocab":…  │
│ Conard/fortune-tel…  │ 2025-03-17 04:04:5…  │      200 │ OK              │ {"@context":{"@language":"en","@vocab":…  │
│ open-r1/codeforces   │ 2025-03-17 04:04:5…  │      200 │ OK              │ {"@context":{"@language":"en","@vocab":…  │
│ SynthLabsAI/Big-Ma…  │ 2025-03-17 04:04:5…  │      401 │ Unauthorized    │ {"error":"Access to dataset SynthLabsAI…  │
│ allenai/olmOCR-mix…  │ 2025-03-17 04:04:5…  │      200 │ OK              │ {"@context":{"@language":"en","@vocab":…  │
│ KodCode/KodCode-V1   │ 2025-03-17 04:04:5…  │      200 │ OK              │ {"@context":{"@language":"en","@vocab":…  │
│ madrylab/gsm8k-pla…  │ 2025-03-17 04:04:5…  │      200 │ OK              │ {"@context":{"@language":"en","@vocab":…  │
│ Intelligent-Intern…  │ 2025-03-17 04:04:5…  │      401 │ Unauthorized    │ {"error":"Access to dataset Intelligent…  │
│ a-m-team/AM-DeepSe…  │ 2025-03-17 04:04:5…  │      200 │ OK              │ {"@context":{"@language":"en","@vocab":…  │
│ openai/gsm8k         │ 2025-03-17 04:04:5…  │      200 │ OK              │ {"@context":{"@language":"en","@vocab":…  │
│ HuggingFaceFW/fine…  │ 2025-03-17 04:04:5…  │      200 │ OK              │ {"@context":{"@language":"en","@vocab":…  │
│ Congliu/Chinese-De…  │ 2025-03-17 04:04:5…  │      200 │ OK              │ {"@context":{"@language":"en","@vocab":…  │
│          ·           │          ·           │       ·  │ ·               │                     ·                     │
│          ·           │          ·           │       ·  │ ·               │                     ·                     │
│          ·           │          ·           │       ·  │ ·               │                     ·                     │
│ gdsu/sdxl_images_s…  │ 2025-03-17 16:32:2…  │      200 │ OK              │ {"@context":{"@language":"en","@vocab":…  │
│ sert121/adult_data…  │ 2025-03-17 16:32:3…  │      200 │ OK              │ {"@context":{"@language":"en","@vocab":…  │
│ sert121/adult_data…  │ 2025-03-17 16:32:3…  │      200 │ OK              │ {"@context":{"@language":"en","@vocab":…  │
│ Tigressive/karen-l…  │ 2025-03-17 16:32:3…  │      200 │ OK              │ {"@context":{"@language":"en","@vocab":…  │
│ cat-searcher/code-…  │ 2025-03-17 16:32:3…  │      200 │ OK              │ {"@context":{"@language":"en","@vocab":…  │
│ mlfoundations-dev/…  │ 2025-03-17 16:32:3…  │      200 │ OK              │ {"@context":{"@language":"en","@vocab":…  │
│ mlfoundations-dev/…  │ 2025-03-17 16:32:3…  │      200 │ OK              │ {"@context":{"@language":"en","@vocab":…  │
│ sugarcokecola/eval…  │ 2025-03-17 16:32:3…  │      400 │ Bad Request     │ {"error":"The croissant format is not a…  │
│ sert121/adult_data…  │ 2025-03-17 16:32:3…  │      200 │ OK              │ {"@context":{"@language":"en","@vocab":…  │
│ wskang/datasets      │ 2025-03-17 16:32:3…  │      200 │ OK              │ {"@context":{"@language":"en","@vocab":…  │
│ sert121/adult_data…  │ 2025-03-17 16:32:3…  │      200 │ OK              │ {"@context":{"@language":"en","@vocab":…  │
│ pltops/Humour-Bench  │ 2025-03-17 16:32:3…  │      200 │ OK              │ {"@context":{"@language":"en","@vocab":…  │
│ gdsu/sdxl_images_e…  │ 2025-03-17 16:32:3…  │      200 │ OK              │ {"@context":{"@language":"en","@vocab":…  │
│ ellen2imagine/push…  │ 2025-03-17 16:32:3…  │      200 │ OK              │ {"@context":{"@language":"en","@vocab":…  │
│ sert121/adult_data…  │ 2025-03-17 16:32:3…  │      200 │ OK              │ {"@context":{"@language":"en","@vocab":…  │
│ RodainaMel/pfe-dat…  │ 2025-03-17 16:32:3…  │      400 │ Bad Request     │ {"error":"The croissant format is not a…  │
│ ZhiqiGao/TPBench     │ 2025-03-17 16:32:3…  │      200 │ OK              │ {"@context":{"@language":"en","@vocab":…  │
│ nthakur/bge-retrie…  │ 2025-03-17 16:32:3…  │      200 │ OK              │ {"@context":{"@language":"en","@vocab":…  │
│ ESITime/timesi-ari…  │ 2025-03-17 16:32:4…  │      200 │ OK              │ {"@context":{"@language":"en","@vocab":…  │
│ raftstudy/raft_sft…  │ 2025-03-17 16:32:4…  │      200 │ OK              │ {"@context":{"@language":"en","@vocab":…  │
├──────────────────────┴──────────────────────┴──────────┴─────────────────┴───────────────────────────────────────────┤
│ 332988 rows (40 shown)                                                                                     5 columns │
└──────────────────────────────────────────────────────────────────────────────────────────────────────────────────────┘
```
…
So, about 79% of the queries for metadata were successful.

Let's play with the DuckDB JSON functions:

```sql
SELECT *
FROM read_ndjson_objects('./data/json/2025-05-06_16-36-59/spark/*.json')
LIMIT 100;
```

```
┌──────────────────────────────────────────────────────────────────────────────────────────────────────────────────────┐
│                                                         json                                                         │
│                                                         json                                                         │
├──────────────────────────────────────────────────────────────────────────────────────────────────────────────────────┤
│ {"croissant":"{\"@context\":{\"@language\":\"en\",\"@vocab\":\"https://schema.org/\",\"citeAs\":\"cr:citeAs\",\"co…  │
│ {"croissant":"{\"@context\":{\"@language\":\"en\",\"@vocab\":\"https://schema.org/\",\"citeAs\":\"cr:citeAs\",\"co…  │
│ {"croissant":"{\"@context\":{\"@language\":\"en\",\"@vocab\":\"https://schema.org/\",\"citeAs\":\"cr:citeAs\",\"co…  │
│ {"croissant":"{\"@context\":{\"@language\":\"en\",\"@vocab\":\"https://schema.org/\",\"citeAs\":\"cr:citeAs\",\"co…  │
│ {"croissant":"{\"@context\":{\"@language\":\"en\",\"@vocab\":\"https://schema.org/\",\"citeAs\":\"cr:citeAs\",\"co…  │
│ {"croissant":"{\"@context\":{\"@language\":\"en\",\"@vocab\":\"https://schema.org/\",\"citeAs\":\"cr:citeAs\",\"co…  │
│ {"croissant":"{\"@context\":{\"@language\":\"en\",\"@vocab\":\"https://schema.org/\",\"citeAs\":\"cr:citeAs\",\"co…  │
│ {"croissant":"{\"@context\":{\"@language\":\"en\",\"@vocab\":\"https://schema.org/\",\"citeAs\":\"cr:citeAs\",\"co…  │
│ {"croissant":"{\"@context\":{\"@language\":\"en\",\"@vocab\":\"https://schema.org/\",\"citeAs\":\"cr:citeAs\",\"co…  │
│ {"croissant":"{\"@context\":{\"@language\":\"en\",\"@vocab\":\"https://schema.org/\",\"citeAs\":\"cr:citeAs\",\"co…  │
│ {"croissant":"{\"@context\":{\"@language\":\"en\",\"@vocab\":\"https://schema.org/\",\"citeAs\":\"cr:citeAs\",\"co…  │
│ {"croissant":"{\"@context\":{\"@language\":\"en\",\"@vocab\":\"https://schema.org/\",\"citeAs\":\"cr:citeAs\",\"co…  │
│ {"croissant":"{\"@context\":{\"@language\":\"en\",\"@vocab\":\"https://schema.org/\",\"citeAs\":\"cr:citeAs\",\"co…  │
│ {"croissant":"{\"@context\":{\"@language\":\"en\",\"@vocab\":\"https://schema.org/\",\"citeAs\":\"cr:citeAs\",\"co…  │
│ {"croissant":"{\"@context\":{\"@language\":\"en\",\"@vocab\":\"https://schema.org/\",\"citeAs\":\"cr:citeAs\",\"co…  │
│ {"croissant":"{\"@context\":{\"@language\":\"en\",\"@vocab\":\"https://schema.org/\",\"citeAs\":\"cr:citeAs\",\"co…  │
│ {"croissant":"{\"@context\":{\"@language\":\"en\",\"@vocab\":\"https://schema.org/\",\"citeAs\":\"cr:citeAs\",\"co…  │
│ {"croissant":"{\"@context\":{\"@language\":\"en\",\"@vocab\":\"https://schema.org/\",\"citeAs\":\"cr:citeAs\",\"co…  │
│ {"croissant":"{\"@context\":{\"@language\":\"en\",\"@vocab\":\"https://schema.org/\",\"citeAs\":\"cr:citeAs\",\"co…  │
│ {"croissant":"{\"@context\":{\"@language\":\"en\",\"@vocab\":\"https://schema.org/\",\"citeAs\":\"cr:citeAs\",\"co…  │
│                                                          ·                                                           │
│                                                          ·                                                           │
│                                                          ·                                                           │
│ {"croissant":"{\"@context\":{\"@language\":\"en\",\"@vocab\":\"https://schema.org/\",\"citeAs\":\"cr:citeAs\",\"co…  │
│ {"croissant":"{\"@context\":{\"@language\":\"en\",\"@vocab\":\"https://schema.org/\",\"citeAs\":\"cr:citeAs\",\"co…  │
│ {"croissant":"{\"@context\":{\"@language\":\"en\",\"@vocab\":\"https://schema.org/\",\"citeAs\":\"cr:citeAs\",\"co…  │
│ {"croissant":"{\"@context\":{\"@language\":\"en\",\"@vocab\":\"https://schema.org/\",\"citeAs\":\"cr:citeAs\",\"co…  │
│ {"croissant":"{\"@context\":{\"@language\":\"en\",\"@vocab\":\"https://schema.org/\",\"citeAs\":\"cr:citeAs\",\"co…  │
│ {"croissant":"{\"@context\":{\"@language\":\"en\",\"@vocab\":\"https://schema.org/\",\"citeAs\":\"cr:citeAs\",\"co…  │
│ {"croissant":"{\"@context\":{\"@language\":\"en\",\"@vocab\":\"https://schema.org/\",\"citeAs\":\"cr:citeAs\",\"co…  │
│ {"croissant":"{\"@context\":{\"@language\":\"en\",\"@vocab\":\"https://schema.org/\",\"citeAs\":\"cr:citeAs\",\"co…  │
│ {"croissant":"{\"@context\":{\"@language\":\"en\",\"@vocab\":\"https://schema.org/\",\"citeAs\":\"cr:citeAs\",\"co…  │
│ {"croissant":"{\"@context\":{\"@language\":\"en\",\"@vocab\":\"https://schema.org/\",\"citeAs\":\"cr:citeAs\",\"co…  │
│ {"croissant":"{\"@context\":{\"@language\":\"en\",\"@vocab\":\"https://schema.org/\",\"citeAs\":\"cr:citeAs\",\"co…  │
│ {"croissant":"{\"@context\":{\"@language\":\"en\",\"@vocab\":\"https://schema.org/\",\"citeAs\":\"cr:citeAs\",\"co…  │
│ {"croissant":"{\"@context\":{\"@language\":\"en\",\"@vocab\":\"https://schema.org/\",\"citeAs\":\"cr:citeAs\",\"co…  │
│ {"croissant":"{\"@context\":{\"@language\":\"en\",\"@vocab\":\"https://schema.org/\",\"citeAs\":\"cr:citeAs\",\"co…  │
│ {"croissant":"{\"@context\":{\"@language\":\"en\",\"@vocab\":\"https://schema.org/\",\"citeAs\":\"cr:citeAs\",\"co…  │
│ {"croissant":"{\"@context\":{\"@language\":\"en\",\"@vocab\":\"https://schema.org/\",\"citeAs\":\"cr:citeAs\",\"co…  │
│ {"croissant":"{\"@context\":{\"@language\":\"en\",\"@vocab\":\"https://schema.org/\",\"citeAs\":\"cr:citeAs\",\"co…  │
│ {"croissant":"{\"@context\":{\"@language\":\"en\",\"@vocab\":\"https://schema.org/\",\"citeAs\":\"cr:citeAs\",\"co…  │
│ {"croissant":"{\"@context\":{\"@language\":\"en\",\"@vocab\":\"https://schema.org/\",\"citeAs\":\"cr:citeAs\",\"co…  │
│ {"croissant":"{\"@context\":{\"@language\":\"en\",\"@vocab\":\"https://schema.org/\",\"citeAs\":\"cr:citeAs\",\"co…  │
├──────────────────────────────────────────────────────────────────────────────────────────────────────────────────────┤
│                                                 100 rows (40 shown)                                                  │
└──────────────────────────────────────────────────────────────────────────────────────────────────────────────────────┘
```
…
