…
This returns zero rows. 

Hence, we can examine the incorrectly specified licenses by looking only at the URLs. Let's find the unique values:

```sql
SELECT license_url, count() AS count
FROM (
  SELECT license_url
  FROM   hf_metadata_with_bad_licenses
  WHERE  license_url NOT NULL AND license_id IS NULL AND license IS NULL)
GROUP BY license_url
ORDER BY count DESC;
┌──────────────────────────────────────────────────────────────────────────┬───────┐
│                               license_url                                │ count │
│                                 varchar                                  │ int64 │
├──────────────────────────────────────────────────────────────────────────┼───────┤
│ https://choosealicense.com/licenses/openrail/                            │  4654 │
│ https://choosealicense.com/licenses/unknown/                             │  2271 │
│ https://choosealicense.com/licenses/other/                               │  1718 │
│ https://choosealicense.com/licenses/cc-by-nc-4.0/                        │  1693 │
│ https://choosealicense.com/licenses/cc-by-nc-sa-4.0/                     │  1410 │
│ https://choosealicense.com/licenses/cc/                                  │   947 │
│ https://choosealicense.com/licenses/odc-by/                              │   618 │
│ https://choosealicense.com/licenses/cc-by-nc-nd-4.0/                     │   549 │
│ https://choosealicense.com/licenses/cc-by-sa-3.0/                        │   492 │
│ https://choosealicense.com/licenses/gpl/                                 │   427 │
│ https://choosealicense.com/licenses/creativeml-openrail-m/               │   320 │
│ https://choosealicense.com/licenses/odbl/                                │   298 │
│ https://choosealicense.com/licenses/llama2/                              │   212 │
│ https://choosealicense.com/licenses/llama3/                              │   186 │
│ https://choosealicense.com/licenses/cc-by-3.0/                           │   179 │
│ https://choosealicense.com/licenses/cc-by-2.0/                           │   163 │
│ https://choosealicense.com/licenses/llama3.1/                            │   161 │
│ https://choosealicense.com/licenses/bsd/                                 │   137 │
│ https://choosealicense.com/licenses/cc-by-nd-4.0/                        │   118 │
│ https://choosealicense.com/licenses/llama3.2/                            │   104 │
│                       ·                                                  │     · │
│                       ·                                                  │     · │
│                       ·                                                  │     · │
│ https://choosealicense.com/licenses/bigscience-openrail-m/               │    58 │
│ https://choosealicense.com/licenses/cdla-sharing-1.0/                    │    57 │
│ https://choosealicense.com/licenses/openrail++/                          │    55 │
│ https://choosealicense.com/licenses/llama3.3/                            │    41 │
│ https://choosealicense.com/licenses/gemma/                               │    33 │
│ https://choosealicense.com/licenses/cc-by-nc-sa-2.0/                     │    31 │
│ https://choosealicense.com/licenses/cc-by-nc-nd-3.0/                     │    25 │
│ https://choosealicense.com/licenses/bigcode-openrail-m/                  │    25 │
│ https://choosealicense.com/licenses/gfdl/                                │    23 │
│ https://choosealicense.com/licenses/etalab-2.0/                          │    21 │
│ https://choosealicense.com/licenses/cc-by-2.5/                           │    21 │
│ https://choosealicense.com/licenses/bigscience-bloom-rail-1.0/           │    15 │
│ https://choosealicense.com/licenses/cdla-permissive-1.0/                 │    10 │
│ https://choosealicense.com/licenses/lgpl/                                │     6 │
│ https://choosealicense.com/licenses/apple-amlr/                          │     4 │
│ https://choosealicense.com/licenses/llama4/                              │     4 │
│ https://choosealicense.com/licenses/lgpl-lr/                             │     2 │
│ https://choosealicense.com/licenses/deepfloyd-if-license/                │     1 │
│ https://choosealicense.com/licenses/fair-noncommercial-research-license/ │     1 │
│ https://choosealicense.com/licenses/intel-research/                      │     1 │
├──────────────────────────────────────────────────────────────────────────┴───────┤
│ 47 rows (40 shown)                                                     2 columns │
└──────────────────────────────────────────────────────────────────────────────────┘
```
…
