…
  SELECT
    lic.id            AS license_id,
    hfm.license       AS license_url,
  FROM hf_metadata1 hfm
  LEFT JOIN hf_licenses  lic
  ON hfm.license = lic.url
  WHERE lic.url IS NULL
  )
SELECT license_url, count(license_url) AS count
FROM lics
GROUP BY license_url
ORDER BY count DESC;
```
```
┌────────────────────────────────────────────────────────────────┬───────┐
│                          license_url                           │ count │
│                            varchar                             │ int64 │
├────────────────────────────────────────────────────────────────┼───────┤
│ https://choosealicense.com/licenses/openrail/                  │  4567 │
│ https://choosealicense.com/licenses/unknown/                   │  1940 │
│ https://choosealicense.com/licenses/other/                     │  1543 │
│ https://choosealicense.com/licenses/cc-by-nc-4.0/              │  1245 │
│ https://choosealicense.com/licenses/cc-by-nc-sa-4.0/           │  1070 │
│ https://choosealicense.com/licenses/cc/                        │   837 │
│ https://choosealicense.com/licenses/cc-by-nc-nd-4.0/           │   530 │
│ https://choosealicense.com/licenses/odc-by/                    │   518 │
│ https://choosealicense.com/licenses/cc-by-sa-3.0/              │   457 │
│ https://choosealicense.com/licenses/gpl/                       │   421 │
│ https://choosealicense.com/licenses/creativeml-openrail-m/     │   281 │
│ https://choosealicense.com/licenses/llama2/                    │   211 │
│ https://choosealicense.com/licenses/llama3/                    │   178 │
│ https://choosealicense.com/licenses/cc-by-3.0/                 │   154 │
│ https://choosealicense.com/licenses/llama3.1/                  │   144 │
│ https://choosealicense.com/licenses/cc-by-2.0/                 │   137 │
│ https://choosealicense.com/licenses/bsd/                       │   130 │
│ https://choosealicense.com/licenses/cc-by-nc-2.0/              │   117 │
│ https://choosealicense.com/licenses/undefined/                 │    99 │
│ https://choosealicense.com/licenses/cc-by-nd-4.0/              │    97 │
│                         ·                                      │     · │
│                         ·                                      │     · │
│                         ·                                      │     · │
│ https://choosealicense.com/licenses/cc-by-nc-sa-3.0/           │    58 │
│ https://choosealicense.com/licenses/c-uda/                     │    54 │
│ https://choosealicense.com/licenses/openrail++/                │    52 │
│ https://choosealicense.com/licenses/cdla-sharing-1.0/          │    51 │
│ https://choosealicense.com/licenses/bigscience-openrail-m/     │    51 │
│ https://choosealicense.com/licenses/cc-by-nc-3.0/              │    49 │
│ https://choosealicense.com/licenses/llama3.3/                  │    31 │
│ https://choosealicense.com/licenses/cc-by-nc-sa-2.0/           │    28 │
│ https://choosealicense.com/licenses/cc-by-nc-nd-3.0/           │    22 │
│ https://choosealicense.com/licenses/bigcode-openrail-m/        │    22 │
│ https://choosealicense.com/licenses/gemma/                     │    20 │
│ https://choosealicense.com/licenses/cc-by-2.5/                 │    20 │
│ https://choosealicense.com/licenses/gfdl/                      │    19 │
│ https://choosealicense.com/licenses/etalab-2.0/                │    17 │
│ https://choosealicense.com/licenses/bigscience-bloom-rail-1.0/ │    13 │
│ https://choosealicense.com/licenses/cdla-permissive-1.0/       │     7 │
│ https://choosealicense.com/licenses/lgpl/                      │     7 │
│ https://choosealicense.com/licenses/apple-amlr/                │     4 │
│ https://choosealicense.com/licenses/deepfloyd-if-license/      │     1 │
│ https://choosealicense.com/licenses/lgpl-lr/                   │     1 │
├────────────────────────────────────────────────────────────────┴───────┤
│ 44 rows (40 shown)                                           2 columns │
└────────────────────────────────────────────────────────────────────────┘
```
…
│ column_name │ column_type │  null   │   key   │ default │  extra  │
│   varchar   │   varchar   │ varchar │ varchar │ varchar │ varchar │
├─────────────┼─────────────┼─────────┼─────────┼─────────┼─────────┤
│ keyword     │ VARCHAR     │ YES     │ NULL    │ NULL    │ NULL    │
│ count       │ BIGINT      │ YES     │ NULL    │ NULL    │ NULL    │
└─────────────┴─────────────┴─────────┴─────────┴─────────┴─────────┘
D SELECT count() FROM hf_keywords;
┌──────────────┐
│ count_star() │
│    int64     │
├──────────────┤
│    19129     │
└──────────────┘
D SELECT * FROM hf_keywords ORDER BY count DESC NULLS FIRST LIMIT 100;
┌──────────────────────────────┬───────┐
│           keyword            │ count │
│           varchar            │ int64 │
├──────────────────────────────┼───────┤
│ 🇺🇸 region: us                │ 44614 │
│ croissant                    │ 39476 │
│ datasets                     │ 39450 │
│ text                         │ 35865 │
│ polars                       │ 33350 │
│ pandas                       │ 27411 │
│ apache-2.0                   │ 19824 │
│ mit                          │ 16917 │
│ parquet                      │ 15242 │
│ < 1k                         │ 13149 │
│ english                      │ 11334 │
│ json                         │ 11050 │
│ 1k - 10k                     │ 10955 │
│ 10k - 100k                   │  8140 │
│ csv                          │  7845 │
│ tabular                      │  6922 │
│ dask                         │  6706 │
│ image                        │  6040 │
│ text-generation              │  5259 │
│ 100k - 1m                    │  4530 │
│     ·                        │    ·  │
│     ·                        │    ·  │
│     ·                        │    ·  │
│ portuguese                   │   404 │
│ legal                        │   399 │
│ document-retrieval           │   389 │
│ afl-3.0                      │   386 │
│ italian                      │   375 │
│ table-question-answering     │   371 │
│ turkish                      │   363 │
│ visual-question-answering    │   347 │
│ finance                      │   327 │
│ sentence-transformers        │   324 │
│ hindi                        │   323 │
│ vietnamese                   │   311 │
│ machine-generated            │   309 │
│ mteb                         │   301 │
│ indonesian                   │   297 │
│ 10k<n<100k                   │   291 │
│ automatic-speech-recognition │   281 │
│ dutch                        │   278 │
│ chemistry                    │   271 │
│ zero-shot-classification     │   270 │
├──────────────────────────────┴───────┤
│ 100 rows (40 shown)        2 columns │
└──────────────────────────────────────┘
```
…
The input entries were in alphabetical order...

Now, let's see what we can find using just the language codes:

```sql
SELECT   ks.keyword, ks.count, ls.code, ls.name
FROM     hf_keywords   ks
JOIN     iso_languages ls
ON       ks.keyword = ls.code
ORDER BY ks.count DESC;
```

```
┌─────────┬───────┬─────────┬───────────────────────┐
│ keyword │ count │  code   │         name          │
│ varchar │ int64 │ varchar │        varchar        │
├─────────┼───────┼─────────┼───────────────────────┤
│ cv      │    11 │ cv      │ chuvash               │
│ ko      │     9 │ ko      │ korean                │
│ ga      │     8 │ ga      │ irish                 │
│ it      │     7 │ it      │ italian               │
│ tt      │     7 │ tt      │ tatar                 │
│ mt      │     6 │ mt      │ maltese               │
│ en      │     6 │ en      │ english               │
│ ru      │     6 │ ru      │ russian               │
│ ml      │     6 │ ml      │ malayalam             │
│ ho      │     4 │ ho      │ hiri motu             │
│ cs      │     4 │ cs      │ czech                 │
│ uz      │     4 │ uz      │ uzbek                 │
│ tr      │     4 │ tr      │ turkish               │
│ fr      │     4 │ fr      │ french                │
│ ik      │     3 │ ik      │ inupiaq               │
│ wa      │     3 │ wa      │ walloon               │
│ eu      │     3 │ eu      │ basque                │
│ ja      │     3 │ ja      │ japanese              │
│ ha      │     3 │ ha      │ hausa                 │
│ pt      │     3 │ pt      │ portuguese            │
│ ·       │     · │ ·       │     ·                 │
│ ·       │     · │ ·       │     ·                 │
│ ·       │     · │ ·       │     ·                 │
│ uk      │     2 │ uk      │ ukrainian             │
│ hu      │     2 │ hu      │ hungarian             │
│ sa      │     2 │ sa      │ sanskrit              │
│ es      │     2 │ es      │ spanish; castilian    │
│ hi      │     2 │ hi      │ hindi                 │
│ fi      │     2 │ fi      │ finnish               │
│ eo      │     2 │ eo      │ esperanto             │
│ ar      │     2 │ ar      │ arabic                │
│ na      │     1 │ na      │ nauru                 │
│ el      │     1 │ el      │ greek, modern (1453-) │
│ no      │     1 │ no      │ norwegian             │
│ rm      │     1 │ rm      │ romansh               │
│ lv      │     1 │ lv      │ latvian               │
│ to      │     1 │ to      │ tonga (tonga islands) │
│ sq      │     1 │ sq      │ albanian              │
│ kg      │     1 │ kg      │ kongo                 │
│ zh      │     1 │ zh      │ chinese               │
│ kr      │     1 │ kr      │ kanuri                │
│ tg      │     1 │ tg      │ tajik                 │
│ mk      │     1 │ mk      │ macedonian            │
├─────────┴───────┴─────────┴───────────────────────┤
│ 44 rows (40 shown)                      4 columns │
└───────────────────────────────────────────────────┘
```
…
#### Aside: The Lengths of the Keywords; A Pareto Distribution?

Actually, 11 is not quite right...

The lengths of the keyword arrays probably follow a Pareto distribution. Notice the following:

```sql
SELECT name, len(keywords) AS len, keywords[0:4]
FROM hf_metadata
ORDER BY len DESC;
```

```
┌──────────────────────┬───────┬───────────────────────────────────────────────────────────────────────────────────────┐
│         name         │  len  │                                     keywords[0:4]                                     │
│       varchar        │ int64 │                                       varchar[]                                       │
├──────────────────────┼───────┼───────────────────────────────────────────────────────────────────────────────────────┤
│ language_tags        │  7918 │ [Afade, Pará Arára, Afar, Aka-Bea]                                                    │
│ panlex               │  6162 │ [Ghotuo, Alumu-Tesu, Ari, Amal]                                                       │
│ GlotCC-V1            │  1405 │ [multilingual, Abau, Amarasi, Abkhaz]                                                 │
│ panlex-meanings      │  1023 │ [translation, Afar, Western Abnaki, Abkhazian]                                        │
│ biblenlp-corpus-mm…  │   875 │ [no-annotation, expert-generated, translation, multilingual]                          │
│ biblenlp-corpus-mm…  │   874 │ [no-annotation, expert-generated, translation, multilingual]                          │
│ udhr-lid             │   436 │ [multilingual, Tigrinya, Balkan Romani, Standard Arabic]                              │
│ ParaNames            │   389 │ [token-classification, Nias, Kotava, Banjar]                                          │
│ wikianc              │   336 │ [token-classification, machine-generated, crowdsourced, machine-generated]            │
│ V1Q                  │   243 │ [text-classification, token-classification, table-question-answering, question-answ…  │
│ Pontoon-Translations │   241 │ [translation, text2text-generation, crowdsourced, Abkhaz]                             │
│ xP3x-Kongo           │   235 │ [other, translation, expert-generated, crowdsourced]                                  │
│ xP3x-sample          │   230 │ [other, expert-generated, crowdsourced, multilingual]                                 │
│ smol                 │   223 │ [translation, Afar, Abkhaz, Achinese]                                                 │
│ opus_ubuntu          │   221 │ [translation, crowdsourced, expert-generated, found]                                  │
│ sib-fleurs           │   218 │ [audio-classification, automatic-speech-recognition, audio-text-to-text, text-to-sp…  │
│ sib200               │   216 │ [text-classification, topic-classification, found, expert-generated]                  │
│ muri-it-language-s…  │   215 │ [text2text-generation, text-generation, question-answering, summarization]            │
│ muri-it              │   215 │ [text2text-generation, text-generation, question-answering, summarization]            │
│ sib200               │   211 │ [text-classification, topic-classification, found, expert-generated]                  │
│   ·                  │     · │              ·                                                                        │
│   ·                  │     · │              ·                                                                        │
│   ·                  │     · │              ·                                                                        │
│ octo_language_table  │     2 │ [apache-2.0, 🇺🇸 Region: US]                                                           │
│ octo_stanford_hydra  │     2 │ [apache-2.0, 🇺🇸 Region: US]                                                           │
│ octo_taco_play       │     2 │ [apache-2.0, 🇺🇸 Region: US]                                                           │
│ octo_toto            │     2 │ [apache-2.0, 🇺🇸 Region: US]                                                           │
│ UNSW_TON-IoT_Train…  │     2 │ [afl-3.0, 🇺🇸 Region: US]                                                              │
│ UNSW_TON-IoT_Train…  │     2 │ [afl-3.0, 🇺🇸 Region: US]                                                              │
│ hku_test             │     2 │ [mit, 🇺🇸 Region: US]                                                                  │
│ CveVulFunctions      │     2 │ [mit, 🇺🇸 Region: US]                                                                  │
│ Fpm-app              │     2 │ [mit, 🇺🇸 Region: US]                                                                  │
│ Corpus               │     2 │ [mit, 🇺🇸 Region: US]                                                                  │
│ articles2            │     2 │ [mit, 🇺🇸 Region: US]                                                                  │
│ Vitap                │     2 │ [mit, 🇺🇸 Region: US]                                                                  │
│ skin_cancer_captio…  │     2 │ [mit, 🇺🇸 Region: US]                                                                  │
│ Future_Track         │     2 │ [apache-2.0, 🇺🇸 Region: US]                                                           │
│ Computational-adme   │     2 │ [mit, 🇺🇸 Region: US]                                                                  │
│ Roshambo             │     2 │ [mit, 🇺🇸 Region: US]                                                                  │
│ Language-Model-Bas…  │     2 │ [cc-by-sa-4.0, 🇺🇸 Region: US]                                                         │
│ ArchonView           │     2 │ [mit, 🇺🇸 Region: US]                                                                  │
│ autodel              │     2 │ [apache-2.0, 🇺🇸 Region: US]                                                           │
│ bc_z_lerobot         │     2 │ [mit, 🇺🇸 Region: US]                                                                  │
├──────────────────────┴───────┴───────────────────────────────────────────────────────────────────────────────────────┤
│ 44631 rows (40 shown)                                                                                      3 columns │
└──────────────────────────────────────────────────────────────────────────────────────────────────────────────────────┘
```
…
